# Blender v2.93.0 OBJ File: 'virtual-venue-assets.blend'
# www.blender.org
mtllib virtual-merch.mtl
o Cube.010_Cube.012
v -64.550705 0.062088 -34.434048
v -64.550705 21.458996 -34.434048
v -64.550705 0.062088 -54.561241
v -64.550705 21.458996 -54.561241
v -57.531822 0.062088 -34.434048
v -63.108330 21.138042 -34.755001
v -57.531822 0.062088 -54.561241
v -63.108330 21.138042 -54.240288
v -64.550705 0.062088 -34.434048
v -64.550705 21.458996 -34.434048
v -64.550705 0.062088 -54.561241
v -64.550705 21.458996 -54.561241
v -57.531822 0.062088 -34.434048
v -63.108330 21.458996 -34.434048
v -57.531822 0.062088 -54.561241
v -63.108330 21.458996 -54.561241
v -64.550705 5.649058 -34.434048
v -57.531822 5.970012 -34.755001
v -57.531822 5.970012 -54.240288
v -64.550705 5.649058 -54.561241
v -63.108330 21.458996 -54.561241
v -63.108330 21.458996 -34.434048
v -57.531822 5.649058 -54.561241
v -57.531822 5.649058 -34.434048
v -64.204483 21.138042 -54.240288
v -64.204483 21.138042 -34.755001
v -64.204483 5.970012 -54.240288
v -64.204483 5.970012 -34.755001
vt 0.440278 0.000000
vt 0.625000 0.000000
vt 0.625000 0.250000
vt 0.440278 0.250000
vt 0.625000 0.500000
vt 0.440278 0.500000
vt 0.444028 0.502707
vt 0.621250 0.502707
vt 0.621250 0.502707
vt 0.444028 0.502707
vt 0.440278 0.750000
vt 0.625000 0.750000
vt 0.625000 1.000000
vt 0.440278 1.000000
vt 0.125000 0.500000
vt 0.375000 0.500000
vt 0.375000 0.750000
vt 0.125000 0.750000
vt 0.875000 0.500000
vt 0.875000 0.750000
vt 0.125000 0.500000
vt 0.375000 0.500000
vt 0.375000 0.750000
vt 0.125000 0.750000
vt 0.625000 0.500000
vt 0.875000 0.500000
vt 0.875000 0.750000
vt 0.625000 0.750000
vt 0.375000 1.000000
vt 0.375000 0.000000
vt 0.375000 0.250000
vt 0.621250 0.747293
vt 0.444028 0.747293
vt 0.621250 0.747293
vt 0.444028 0.747293
vn -1.0000 0.0000 0.0000
vn 0.0000 0.0000 -1.0000
vn 0.0000 0.0000 1.0000
vn 0.0000 -1.0000 0.0000
vn 0.0000 1.0000 0.0000
vn 1.0000 0.0000 0.0000
vn 0.9409 0.3387 0.0000
usemtl None
s off
f 17/1/1 2/2/1 4/3/1 20/4/1
f 20/4/2 4/3/2 21/5/2 23/6/2
f 19/7/3 8/8/3 25/9/3 27/10/3
f 24/11/3 22/12/3 2/13/3 17/14/3
f 3/15/4 7/16/4 5/17/4 1/18/4
f 21/5/5 4/19/5 2/20/5 22/12/5
f 11/21/4 15/22/4 13/23/4 9/24/4
f 16/25/5 12/26/5 10/27/5 14/28/5
f 7/16/6 23/6/6 24/11/6 5/17/6
f 5/17/3 24/11/3 17/14/3 1/29/3
f 1/30/1 17/1/1 20/4/1 3/31/1
f 3/31/2 20/4/2 23/6/2 7/16/2
f 6/32/6 8/8/6 21/5/6 22/12/6
f 19/7/6 18/33/6 24/11/6 23/6/6
f 18/33/7 6/32/7 22/12/7 24/11/7
f 8/8/7 19/7/7 23/6/7 21/5/7
f 27/10/6 25/9/6 26/34/6 28/35/6
f 18/33/5 19/7/5 27/10/5 28/35/5
f 6/32/2 18/33/2 28/35/2 26/34/2
f 8/8/4 6/32/4 26/34/4 25/9/4
o Plane.001
v -62.854591 11.796427 -41.077068
v -62.854591 17.320217 -41.431816
v -62.854591 15.848874 -40.918041
v -62.854591 16.174133 -42.592625
v -62.854591 15.314428 -41.809727
v -62.854591 17.833992 -40.084511
v -62.854591 11.796427 -37.106834
v -62.854591 17.320217 -36.752087
v -62.854591 17.418079 -39.091949
v -62.854591 15.848874 -37.265862
v -62.854591 16.174133 -35.591278
v -62.854591 15.314428 -36.374176
v -62.854591 17.833992 -38.099392
v -62.684738 11.796427 -41.077068
v -62.684738 17.320217 -41.431816
v -62.684738 15.848874 -40.918041
v -62.684738 16.174133 -42.592625
v -62.684738 15.314428 -41.809727
v -62.684738 17.833992 -40.084511
v -62.684738 11.796427 -37.106834
v -62.684738 17.320217 -36.752087
v -62.684738 17.418079 -39.091949
v -62.684738 15.848874 -37.265862
v -62.684738 16.174133 -35.591278
v -62.684738 15.314428 -36.374176
v -62.684738 17.833992 -38.099392
v -61.083076 10.144343 -41.077068
v -61.083076 15.668135 -41.431816
v -61.083076 14.196791 -40.918041
v -61.083076 14.522051 -42.592625
v -61.083076 13.662346 -41.809727
v -61.083076 16.181908 -40.084511
v -61.083076 10.144343 -37.106834
v -61.083076 15.668135 -36.752087
v -61.083076 15.765996 -39.091949
v -61.083076 14.196791 -37.265862
v -61.083076 14.522051 -35.591278
v -61.083076 13.662346 -36.374176
v -61.083076 16.181908 -38.099392
v -60.913231 10.144343 -41.077068
v -60.913231 15.668135 -41.431816
v -60.913231 14.196791 -40.918041
v -60.913231 14.522051 -42.592625
v -60.913231 13.662346 -41.809727
v -60.913231 16.181908 -40.084511
v -60.913231 10.144343 -37.106834
v -60.913231 15.668135 -36.752087
v -60.913231 15.765996 -39.091949
v -60.913231 14.196791 -37.265862
v -60.913231 14.522051 -35.591278
v -60.913231 13.662346 -36.374176
v -60.913231 16.181908 -38.099392
v -58.722763 12.169498 -36.374176
v -58.722763 13.029204 -35.591278
v -58.722763 14.175287 -36.752087
v -58.722763 14.689062 -38.099392
v -58.722763 8.651497 -37.106834
v -58.722763 12.703944 -37.265862
v -58.722763 14.273149 -39.091949
v -58.722763 12.169498 -41.809727
v -58.722763 13.029204 -42.592625
v -58.722763 14.175287 -41.431816
v -58.722763 14.689062 -40.084511
v -58.722763 8.651497 -41.077068
v -58.722763 12.703944 -40.918041
v -58.922768 8.651497 -41.077068
v -58.922768 14.175287 -41.431816
v -58.922768 12.703944 -40.918041
v -58.922768 13.029204 -42.592625
v -58.922768 12.169498 -41.809727
v -58.922768 14.689062 -40.084511
v -58.922768 8.651497 -37.106834
v -58.922768 14.175287 -36.752087
v -58.922768 14.273149 -39.091949
v -58.922768 12.703944 -37.265862
v -58.922768 13.029204 -35.591278
v -58.922768 12.169498 -36.374176
v -58.922768 14.689062 -38.099392
v -62.854591 11.796427 -51.170372
v -62.854591 17.320217 -51.525124
v -62.854591 15.848874 -51.011345
v -62.854591 16.174133 -52.685928
v -62.854591 15.314428 -51.903030
v -62.854591 17.833992 -50.177818
v -62.854591 11.796427 -47.200138
v -62.854591 17.320217 -46.845394
v -62.854591 17.418079 -49.185261
v -62.854591 15.848874 -47.359165
v -62.854591 16.174133 -45.684586
v -62.854591 15.314428 -46.467480
v -62.854591 17.833992 -48.192696
v -62.684738 11.796427 -51.170372
v -62.684738 17.320217 -51.525124
v -62.684738 15.848874 -51.011345
v -62.684738 16.174133 -52.685928
v -62.684738 15.314428 -51.903030
v -62.684738 17.833992 -50.177818
v -62.684738 11.796427 -47.200138
v -62.684738 17.320217 -46.845394
v -62.684738 17.418079 -49.185261
v -62.684738 15.848874 -47.359165
v -62.684738 16.174133 -45.684586
v -62.684738 15.314428 -46.467480
v -62.684738 17.833992 -48.192696
v -61.083076 10.144343 -51.170372
v -61.083076 15.668135 -51.525124
v -61.083076 14.196791 -51.011345
v -61.083076 14.522051 -52.685928
v -61.083076 13.662346 -51.903030
v -61.083076 16.181908 -50.177818
v -61.083076 10.144343 -47.200138
v -61.083076 15.668135 -46.845394
v -61.083076 15.765996 -49.185261
v -61.083076 14.196791 -47.359165
v -61.083076 14.522051 -45.684586
v -61.083076 13.662346 -46.467480
v -61.083076 16.181908 -48.192696
v -60.913231 10.144343 -51.170372
v -60.913231 15.668135 -51.525124
v -60.913231 14.196791 -51.011345
v -60.913231 14.522051 -52.685928
v -60.913231 13.662346 -51.903030
v -60.913231 16.181908 -50.177818
v -60.913231 10.144343 -47.200138
v -60.913231 15.668135 -46.845394
v -60.913231 15.765996 -49.185261
v -60.913231 14.196791 -47.359165
v -60.913231 14.522051 -45.684586
v -60.913231 13.662346 -46.467480
v -60.913231 16.181908 -48.192696
v -59.092613 8.651497 -51.170372
v -59.092613 14.175287 -51.525124
v -59.092613 12.703944 -51.011345
v -59.092613 13.029204 -52.685928
v -59.092613 12.169498 -51.903030
v -59.092613 14.689062 -50.177818
v -59.092613 8.651497 -47.200138
v -59.092613 14.175287 -46.845394
v -59.092613 14.273149 -49.185261
v -59.092613 12.703944 -47.359165
v -59.092613 13.029204 -45.684586
v -59.092613 12.169498 -46.467480
v -59.092613 14.689062 -48.192696
v -58.922768 8.651497 -51.170372
v -58.922768 14.175287 -51.525124
v -58.922768 12.703944 -51.011345
v -58.922768 13.029204 -52.685928
v -58.922768 12.169498 -51.903030
v -58.922768 14.689062 -50.177818
v -58.922768 8.651497 -47.200138
v -58.922768 14.175287 -46.845394
v -58.922768 14.273149 -49.185261
v -58.922768 12.703944 -47.359165
v -58.922768 13.029204 -45.684586
v -58.922768 12.169498 -46.467480
v -58.922768 14.689062 -48.192696
vt 0.250000 1.000000
vt 0.000000 1.000000
vt 0.000000 1.000000
vt 0.000000 0.500000
vt 0.000000 0.500000
vt 0.000000 0.000000
vt 0.000000 0.000000
vt 0.000000 0.500000
vt 0.000000 0.500000
vt 0.000000 1.000000
vt 0.000000 1.000000
vt 0.250000 1.000000
vt 0.500000 1.000000
vt 0.250000 1.000000
vt 0.000000 1.000000
vt 0.000000 1.000000
vt 0.000000 0.500000
vt 0.000000 0.500000
vt 0.000000 0.000000
vt 0.000000 0.000000
vt 0.000000 0.500000
vt 0.000000 0.500000
vt 0.000000 1.000000
vt 0.000000 1.000000
vt 0.250000 1.000000
vt 0.500000 1.000000
vt 0.000000 1.000000
vt 0.250000 1.000000
vt 0.500000 1.000000
vt 0.250000 1.000000
vt 0.000000 1.000000
vt 0.000000 1.000000
vt 0.000000 0.500000
vt 0.000000 0.500000
vt 0.000000 0.000000
vt 0.000000 0.000000
vt 0.000000 0.500000
vt 0.000000 0.500000
vt 0.000000 1.000000
vt 0.250000 1.000000
vt 0.000000 1.000000
vt 0.000000 1.000000
vt 0.000000 0.500000
vt 0.000000 0.500000
vt 0.000000 0.000000
vt 0.000000 0.000000
vt 0.000000 0.500000
vt 0.000000 0.500000
vt 0.000000 1.000000
vt 0.000000 1.000000
vt 0.250000 1.000000
vt 0.500000 1.000000
vt 0.000000 1.000000
vt 0.250000 1.000000
vt 0.250000 1.000000
vt 0.000000 1.000000
vt 0.250000 1.000000
vt 0.500000 1.000000
vt 0.000000 1.000000
vt 0.000000 0.500000
vt 0.000000 0.500000
vt 0.000000 0.000000
vt 0.000000 0.000000
vt 0.000000 0.500000
vt 0.000000 0.500000
vt 0.000000 1.000000
vt 0.000000 1.000000
vt 0.000000 0.500000
vt 0.000000 1.000000
vt 0.000000 0.500000
vt 0.000000 0.000000
vt 0.000000 0.500000
vt 0.000000 1.000000
vt 0.250000 1.000000
vt 0.000000 0.000000
vt 0.000000 0.500000
vt 0.500000 1.000000
vt 0.000000 1.000000
vt 0.250000 1.000000
vt 0.000000 1.000000
vt 0.000000 1.000000
vt 0.000000 0.500000
vt 0.000000 0.500000
vt 0.000000 0.000000
vt 0.000000 0.000000
vt 0.000000 0.500000
vt 0.000000 0.500000
vt 0.000000 1.000000
vt 0.000000 1.000000
vt 0.250000 1.000000
vt 0.500000 1.000000
vt 0.000000 0.000000
vt 0.000000 0.500000
vt 0.000000 1.000000
vt 0.250000 1.000000
vt 0.000000 0.500000
vt 0.000000 1.000000
vt 0.500000 1.000000
vt 0.000000 0.500000
vt 0.000000 0.000000
vt 0.250000 1.000000
vt 0.000000 1.000000
vt 0.000000 1.000000
vt 0.000000 0.500000
vt 0.250000 1.000000
vt 0.000000 1.000000
vt 0.000000 1.000000
vt 0.000000 0.500000
vt 0.000000 0.500000
vt 0.000000 0.000000
vt 0.000000 0.000000
vt 0.000000 0.500000
vt 0.000000 0.500000
vt 0.000000 1.000000
vt 0.000000 1.000000
vt 0.250000 1.000000
vt 0.500000 1.000000
vt 0.250000 1.000000
vt 0.500000 1.000000
vt 0.250000 1.000000
vt 0.000000 1.000000
vt 0.000000 1.000000
vt 0.000000 0.500000
vt 0.000000 0.500000
vt 0.000000 0.000000
vt 0.000000 0.000000
vt 0.000000 0.500000
vt 0.000000 0.500000
vt 0.000000 1.000000
vt 0.000000 1.000000
vt 0.250000 1.000000
vt 0.000000 1.000000
vt 0.000000 1.000000
vt 0.000000 0.500000
vt 0.000000 0.500000
vt 0.000000 0.000000
vt 0.000000 0.000000
vt 0.000000 0.500000
vt 0.000000 0.500000
vt 0.000000 1.000000
vt 0.000000 1.000000
vt 0.250000 1.000000
vt 0.500000 1.000000
vt 0.250000 1.000000
vt 0.000000 1.000000
vt 0.000000 1.000000
vt 0.000000 0.500000
vt 0.000000 0.500000
vt 0.000000 0.000000
vt 0.000000 0.000000
vt 0.000000 0.500000
vt 0.000000 0.500000
vt 0.000000 1.000000
vt 0.000000 1.000000
vt 0.250000 1.000000
vt 0.500000 1.000000
vn -1.0000 -0.0000 0.0000
vn 1.0000 0.0000 0.0000
vn 0.0000 0.0392 -0.9992
vn 0.0000 0.9344 -0.3563
vn 0.0000 -1.0000 0.0000
vn 0.0000 -0.6733 -0.7394
vn 0.0000 0.7116 -0.7026
vn 0.0000 -0.8577 0.5141
vn 0.0000 0.9223 0.3865
vn 0.0000 0.0392 0.9992
vn 0.0000 0.9344 0.3563
vn 0.0000 -0.6733 0.7394
vn 0.0000 0.7116 0.7026
vn 0.0000 -0.8577 -0.5141
vn 0.0000 0.9223 -0.3865
usemtl None
s off
f 34/36/8 30/37/8 32/38/8 33/39/8 31/40/8 29/41/8 35/42/8 38/43/8 40/44/8 39/45/8 36/46/8 41/47/8 37/48/8
f 54/49/9 49/50/9 52/51/9 53/52/9 51/53/9 48/54/9 42/55/9 44/56/9 46/57/9 45/58/9 43/59/9 47/60/9 50/61/9
f 29/41/10 31/40/10 44/56/10 42/55/10
f 30/37/11 34/36/11 47/60/11 43/59/11
f 35/42/12 29/41/12 42/55/12 48/54/12
f 33/39/13 32/38/13 45/58/13 46/57/13
f 32/38/14 30/37/14 43/59/14 45/58/14
f 31/40/15 33/39/15 46/57/15 44/56/15
f 34/36/16 37/48/16 50/61/16 47/60/16
f 38/43/17 35/42/17 48/54/17 51/53/17
f 41/47/18 36/46/18 49/50/18 54/49/18
f 39/45/19 40/44/19 53/52/19 52/51/19
f 36/46/20 39/45/20 52/51/20 49/50/20
f 40/44/21 38/43/21 51/53/21 53/52/21
f 37/48/22 41/47/22 54/49/22 50/61/22
f 62/62/8 67/63/8 63/64/8 60/65/8 56/66/8 58/67/8 59/68/8 57/69/8 55/70/8 61/71/8 64/72/8 66/73/8 65/74/8
f 80/75/9 75/76/9 78/77/9 79/78/9 77/79/9 74/80/9 68/81/9 70/82/9 72/83/9 71/84/9 69/85/9 73/86/9 76/87/9
f 55/70/10 57/69/10 70/82/10 68/81/10
f 56/66/11 60/65/11 73/86/11 69/85/11
f 61/71/12 55/70/12 68/81/12 74/80/12
f 59/68/13 58/67/13 71/84/13 72/83/13
f 58/67/14 56/66/14 69/85/14 71/84/14
f 57/69/15 59/68/15 72/83/15 70/82/15
f 60/65/16 63/64/16 76/87/16 73/86/16
f 64/72/17 61/71/17 74/80/17 77/79/17
f 67/63/18 62/62/18 75/76/18 80/75/18
f 65/74/19 66/73/19 79/78/19 78/77/19
f 62/62/20 65/74/20 78/77/20 75/76/20
f 66/73/21 64/72/21 77/79/21 79/78/21
f 63/64/22 67/63/22 80/75/22 76/87/22
f 95/88/11 99/89/11 91/90/11 90/91/11
f 106/92/8 102/93/8 99/89/8 95/88/8 97/94/8 98/95/8 96/96/8 94/97/8 100/98/8 103/99/8 105/100/8 104/101/8 101/102/8
f 104/101/19 105/100/19 81/103/19 82/104/19
f 94/97/10 96/96/10 93/105/10 92/106/10
f 96/96/15 98/95/15 88/107/15 93/105/15
f 106/92/18 101/102/18 83/108/18 84/109/18
f 103/99/17 100/98/17 85/110/17 86/111/17
f 99/89/16 102/93/16 87/112/16 91/90/16
f 100/98/12 94/97/12 92/106/12 85/110/12
f 102/93/22 106/92/22 84/109/22 87/112/22
f 97/94/14 95/88/14 90/91/14 89/113/14
f 105/100/21 103/99/21 86/111/21 81/103/21
f 98/95/13 97/94/13 89/113/13 88/107/13
f 101/102/20 104/101/20 82/104/20 83/108/20
f 84/109/9 83/108/9 82/104/9 81/103/9 86/111/9 85/110/9 92/106/9 93/105/9 88/107/9 89/113/9 90/91/9 91/90/9 87/112/9
f 132/114/9 127/115/9 130/116/9 131/117/9 129/118/9 126/119/9 120/120/9 122/121/9 124/122/9 123/123/9 121/124/9 125/125/9 128/126/9
f 107/127/10 109/128/10 122/121/10 120/120/10
f 108/129/11 112/130/11 125/125/11 121/124/11
f 111/131/13 110/132/13 123/123/13 124/122/13
f 110/132/14 108/129/14 121/124/14 123/123/14
f 109/128/15 111/131/15 124/122/15 122/121/15
f 112/130/16 115/133/16 128/126/16 125/125/16
f 116/134/17 113/135/17 126/119/17 129/118/17
f 119/136/18 114/137/18 127/115/18 132/114/18
f 113/135/12 107/127/12 120/120/12 126/119/12
f 117/138/19 118/139/19 131/117/19 130/116/19
f 114/137/20 117/138/20 130/116/20 127/115/20
f 118/139/21 116/134/21 129/118/21 131/117/21
f 115/133/22 119/136/22 132/114/22 128/126/22
f 164/140/8 160/141/8 162/142/8 163/143/8 161/144/8 159/145/8 165/146/8 168/147/8 170/148/8 169/149/8 166/150/8 171/151/8 167/152/8
f 145/153/8 141/154/8 138/155/8 134/156/8 136/157/8 137/158/8 135/159/8 133/160/8 139/161/8 142/162/8 144/163/8 143/164/8 140/165/8
f 158/166/9 153/167/9 156/168/9 157/169/9 155/170/9 152/171/9 146/172/9 148/173/9 150/174/9 149/175/9 147/176/9 151/177/9 154/178/9
f 133/160/10 135/159/10 148/173/10 146/172/10
f 134/156/11 138/155/11 151/177/11 147/176/11
f 139/161/12 133/160/12 146/172/12 152/171/12
f 137/158/13 136/157/13 149/175/13 150/174/13
f 136/157/14 134/156/14 147/176/14 149/175/14
f 135/159/15 137/158/15 150/174/15 148/173/15
f 138/155/16 141/154/16 154/178/16 151/177/16
f 142/162/17 139/161/17 152/171/17 155/170/17
f 145/153/18 140/165/18 153/167/18 158/166/18
f 143/164/19 144/163/19 157/169/19 156/168/19
f 140/165/20 143/164/20 156/168/20 153/167/20
f 144/163/21 142/162/21 155/170/21 157/169/21
f 141/154/22 145/153/22 158/166/22 154/178/22
f 114/137/8 119/136/8 115/133/8 112/130/8 108/129/8 110/132/8 111/131/8 109/128/8 107/127/8 113/135/8 116/134/8 118/139/8 117/138/8
f 184/179/9 179/180/9 182/181/9 183/182/9 181/183/9 178/184/9 172/185/9 174/186/9 176/187/9 175/188/9 173/189/9 177/190/9 180/191/9
f 159/145/10 161/144/10 174/186/10 172/185/10
f 160/141/11 164/140/11 177/190/11 173/189/11
f 163/143/13 162/142/13 175/188/13 176/187/13
f 162/142/14 160/141/14 173/189/14 175/188/14
f 161/144/15 163/143/15 176/187/15 174/186/15
f 164/140/16 167/152/16 180/191/16 177/190/16
f 168/147/17 165/146/17 178/184/17 181/183/17
f 171/151/18 166/150/18 179/180/18 184/179/18
f 169/149/19 170/148/19 183/182/19 182/181/19
f 166/150/20 169/149/20 182/181/20 179/180/20
f 170/148/21 168/147/21 181/183/21 183/182/21
f 167/152/22 171/151/22 184/179/22 180/191/22
f 165/146/12 159/145/12 172/185/12 178/184/12
