# Blender v2.93.0 OBJ File: 'virtual-venue-assets.blend'
# www.blender.org
mtllib virtual-light.mtl
o Cube.009_Cube.010
v -16.915478 13.212208 -37.967659
v -14.911320 15.809396 -35.675747
v -16.915478 18.902605 -39.304558
v -14.911320 17.597723 -36.095894
v -11.070144 13.212208 -37.967659
v -13.074301 15.809396 -35.675747
v -11.070144 18.902605 -39.304558
v -13.074301 17.597723 -36.095894
v -15.359407 15.373184 -35.573261
v -15.359407 18.033934 -36.198380
v -12.626213 18.033934 -36.198380
v -12.626213 15.373184 -35.573261
v -14.911320 16.505823 -32.711468
v -14.911320 18.294149 -33.131618
v -13.074301 16.505823 -32.711468
v -13.074301 18.294149 -33.131618
v -14.192180 3.600272 -34.105484
v -14.192180 16.289837 -34.105484
v -14.192180 3.600272 -34.555344
v -14.192180 16.289837 -34.555344
v -13.742320 3.600272 -34.105484
v -13.742320 16.289837 -34.105484
v -13.742320 3.600272 -34.555344
v -13.742320 16.289837 -34.555344
v -14.192180 4.408113 -34.105484
v -14.192180 4.408113 -34.555344
v -13.742320 4.408113 -34.555344
v -13.742320 4.408113 -34.105484
v -16.192181 0.000865 -34.105484
v -16.192181 0.000865 -34.555344
v -16.672132 0.008785 -34.105484
v -16.672132 0.008785 -34.555344
v -14.192180 0.000865 -36.555344
v -13.742320 0.000865 -36.555344
v -14.192180 0.000866 -37.012505
v -13.742320 0.000866 -37.012505
v -11.742320 0.000865 -34.105484
v -11.742320 0.000865 -34.555344
v -11.286366 0.000786 -34.555344
v -11.286366 0.000786 -34.105484
v -14.192180 0.000865 -32.105484
v -13.742320 0.000865 -32.105484
v -14.192180 0.002385 -31.635130
v -13.742320 0.002385 -31.635130
v -14.192180 0.000865 -36.555344
v -13.742320 0.000865 -36.555344
v -14.192180 0.000866 -37.012505
v -13.742320 0.000866 -37.012505
v -14.192180 0.000866 -37.012505
v -13.742320 0.000866 -37.012505
v -14.192180 0.000866 -37.012505
v -13.742320 0.000866 -37.012505
vt 0.375000 0.000000
vt 0.625000 0.000000
vt 0.625000 0.250000
vt 0.375000 0.250000
vt 0.625000 0.500000
vt 0.375000 0.500000
vt 0.625000 0.750000
vt 0.375000 0.750000
vt 0.625000 1.000000
vt 0.375000 1.000000
vt 0.125000 0.500000
vt 0.125000 0.750000
vt 0.834014 0.709014
vt 0.665986 0.709014
vt 0.665986 0.709014
vt 0.834014 0.709014
vt 0.834014 0.540986
vt 0.875000 0.500000
vt 0.875000 0.750000
vt 0.665986 0.540986
vt 0.665986 0.540986
vt 0.834014 0.540986
vt 0.383835 0.000000
vt 0.625000 0.000000
vt 0.625000 0.250000
vt 0.383835 0.250000
vt 0.625000 0.500000
vt 0.383835 0.500000
vt 0.625000 0.750000
vt 0.383835 0.750000
vt 0.625000 1.000000
vt 0.383835 1.000000
vt 0.125000 0.500000
vt 0.375000 0.500000
vt 0.375000 0.750000
vt 0.125000 0.750000
vt 0.875000 0.500000
vt 0.875000 0.750000
vt 0.383835 0.750000
vt 0.375000 0.750000
vt 0.375000 0.750000
vt 0.383835 0.750000
vt 0.383835 0.500000
vt 0.383835 0.250000
vt 0.375000 0.250000
vt 0.375000 0.250000
vt 0.383835 0.250000
vt 0.375000 0.000000
vt 0.383835 0.000000
vt 0.375000 1.000000
vt 0.383835 1.000000
vt 0.375000 1.000000
vt 0.125000 0.750000
vt 0.125000 0.500000
vt 0.383835 0.500000
vt 0.383835 0.250000
vt 0.375000 0.250000
vt 0.375000 0.500000
vt 0.125000 0.500000
vt 0.375000 0.500000
vt 0.383835 0.500000
vt 0.383835 1.000000
vt 0.375000 1.000000
vt 0.125000 0.750000
vt 0.375000 0.250000
vt 0.383835 0.250000
vt 0.383835 0.500000
vt 0.375000 0.500000
vt 0.125000 0.500000
vt 0.383835 0.500000
vt 0.383835 0.250000
vn -0.8759 0.1103 0.4697
vn 0.0000 0.9630 0.2693
vn 0.8759 0.1103 0.4697
vn 0.0000 -0.7424 0.6700
vn 0.0000 -0.2287 -0.9735
vn 0.0000 -0.9735 0.2287
vn 0.0000 0.2287 0.9735
vn 0.0000 0.9735 -0.2287
vn 1.0000 0.0000 0.0000
vn -1.0000 0.0000 0.0000
vn 0.0000 0.0000 -1.0000
vn 0.0000 0.0000 1.0000
vn 0.0000 -1.0000 0.0000
vn 0.0000 1.0000 0.0000
vn 0.0000 0.4870 -0.8734
vn -0.0165 -0.9999 0.0000
vn -0.8711 0.4911 0.0000
vn 0.8741 -0.4857 0.0000
vn 0.0000 -0.4857 0.8741
vn -0.0002 -1.0000 0.0000
vn -0.8741 -0.4857 0.0000
vn 0.8735 0.4868 0.0000
vn 0.0000 -1.0000 0.0032
vn 0.0000 0.4891 0.8722
vn 0.0000 -0.4857 -0.8741
usemtl None
s off
f 1/1/1 9/2/1 10/3/1 3/4/1
f 3/4/2 10/3/2 11/5/2 7/6/2
f 7/6/3 11/5/3 12/7/3 5/8/3
f 5/8/4 12/7/4 9/9/4 1/10/4
f 3/11/5 7/6/5 5/8/5 1/12/5
f 2/13/6 6/14/6 15/15/6 13/16/6
f 2/13/7 4/17/7 10/18/7 9/19/7
f 4/17/7 8/20/7 11/5/7 10/18/7
f 8/20/7 6/14/7 12/7/7 11/5/7
f 6/14/7 2/13/7 9/19/7 12/7/7
f 16/21/7 14/22/7 13/16/7 15/15/7
f 8/20/8 4/17/8 14/22/8 16/21/8
f 6/14/9 8/20/9 16/21/9 15/15/9
f 4/17/10 2/13/10 13/16/10 14/22/10
f 25/23/10 18/24/10 20/25/10 26/26/10
f 26/26/11 20/25/11 24/27/11 27/28/11
f 27/28/9 24/27/9 22/29/9 28/30/9
f 28/30/12 22/29/12 18/31/12 25/32/12
f 19/33/13 23/34/13 21/35/13 17/36/13
f 24/27/14 20/37/14 18/38/14 22/29/14
f 21/35/9 28/30/9 44/39/9 42/40/9
f 28/30/12 21/35/12 37/41/12 40/42/12
f 26/26/15 27/28/15 36/43/15 35/44/15
f 26/26/11 19/45/11 30/46/11 32/47/11
f 29/48/16 31/49/16 32/47/16 30/46/16
f 17/50/12 25/32/12 31/51/12 29/52/12
f 25/23/17 26/26/17 32/47/17 31/49/17
f 19/33/18 17/36/18 29/53/18 30/54/18
f 35/44/12 36/43/12 50/55/12 49/56/12
f 19/45/10 26/26/10 35/44/10 33/57/10
f 27/28/9 23/34/9 34/58/9 36/43/9
f 23/34/19 19/33/19 33/59/19 34/58/19
f 38/60/20 39/61/20 40/42/20 37/41/20
f 21/35/21 23/34/21 38/60/21 37/41/21
f 23/34/11 27/28/11 39/61/11 38/60/11
f 27/28/22 28/30/22 40/42/22 39/61/22
f 42/40/23 44/39/23 43/62/23 41/63/23
f 28/30/24 25/32/24 43/62/24 44/39/24
f 25/32/10 17/50/10 41/63/10 43/62/10
f 17/36/25 21/35/25 42/40/25 41/64/25
f 45/65/13 47/66/13 48/67/13 46/68/13
f 34/58/12 33/59/12 45/69/12 46/68/12
f 36/43/12 34/58/12 46/68/12 48/67/12
f 33/57/12 35/44/12 47/66/12 45/65/12
f 49/56/12 50/55/12 52/70/12 51/71/12
f 36/43/12 48/67/12 52/70/12 50/55/12
f 47/66/12 35/44/12 49/56/12 51/71/12
f 48/67/12 47/66/12 51/71/12 52/70/12
