# Blender v2.93.0 OBJ File: 'virtual-venue-assets.blend'
# www.blender.org
mtllib virtual-popcorn.mtl
o Cube.008_Cube.009
v -46.526421 -0.034523 42.741467
v -46.526421 8.254923 42.741467
v -46.526421 -0.034523 32.018188
v -46.526421 8.254923 32.018188
v -32.044041 -0.034523 42.741467
v -32.044041 8.254923 42.741467
v -32.044041 -0.034523 32.018188
v -32.044041 8.254923 32.018188
v -46.099533 8.254923 42.741467
v -32.470932 8.254923 42.741467
v -32.470932 -0.034523 42.741467
v -46.099533 -0.034523 42.741467
v -32.470932 8.254923 32.018188
v -46.099533 8.254923 32.018188
v -46.099533 -0.034523 32.018188
v -32.470932 -0.034523 32.018188
v -46.526421 -0.034523 32.506046
v -46.526421 -0.034523 42.253586
v -46.526421 8.254923 42.253590
v -46.526421 8.254923 32.506050
v -32.044041 -0.034523 42.253590
v -32.044041 -0.034523 32.506050
v -32.044041 8.254923 32.506046
v -32.044041 8.254923 42.253586
v -46.099533 -0.034523 32.506050
v -46.099533 -0.034523 42.253590
v -46.099533 8.254924 32.506050
v -46.099533 8.254924 42.253590
v -32.470932 -0.034523 32.506050
v -32.470932 -0.034523 42.253590
v -32.470932 8.254924 32.506050
v -32.470932 8.254924 42.253590
v -32.044041 8.254923 42.741467
v -32.470932 8.254923 42.741467
v -32.044041 8.254923 42.253586
v -32.470932 8.254924 42.253590
v -46.526421 8.254923 42.741467
v -46.526421 8.254923 32.018188
v -32.044041 8.254923 32.018188
v -46.099533 8.254923 42.741467
v -32.470932 8.254923 32.018188
v -46.099533 8.254923 32.018188
v -46.526421 8.254923 42.253590
v -46.526421 8.254923 32.506050
v -32.044041 8.254923 32.506046
v -46.099533 8.254924 32.506050
v -46.099533 8.254924 42.253590
v -32.470932 8.254924 32.506050
v -32.044041 8.254923 42.741467
v -32.470932 8.254923 42.741467
v -32.044041 8.254923 42.253586
v -32.470932 8.254924 42.253590
v -32.044041 8.254923 42.741467
v -32.470932 8.254923 42.741467
v -32.044041 8.254923 42.253586
v -32.470932 8.254924 42.253590
v -32.044041 8.254923 42.741467
v -32.470932 8.254923 42.741467
v -32.044041 8.254923 42.253586
v -32.470932 8.254924 42.253590
v -32.044041 8.254923 42.741467
v -32.470932 8.254923 42.741467
v -32.044041 8.254923 42.253586
v -32.470932 8.254924 42.253590
v -32.044033 19.280260 42.741474
v -32.470921 19.280260 42.741474
v -32.044029 19.280260 42.253597
v -32.470921 19.280260 42.253597
v -32.044033 19.280260 32.018181
v -32.470924 19.280260 32.018181
v -32.044029 19.280260 32.506039
v -32.470921 19.280260 32.506042
v -46.526428 19.280260 32.018181
v -46.099545 19.280260 32.018181
v -46.526428 19.280260 32.506042
v -46.099545 19.280260 32.506042
v -46.526428 19.280260 42.741474
v -46.099541 19.280260 42.741474
v -46.526428 19.280260 42.253597
v -46.099545 19.280260 42.253597
v -48.351788 19.070400 42.997971
v -48.351788 19.070400 31.783159
v -29.982880 19.070400 42.997971
v -29.982880 19.070400 31.783159
v -48.351788 24.774136 37.390564
v -29.982880 24.774136 37.390564
v -39.287205 13.374521 34.485649
v -39.287205 15.740263 34.485649
v -37.235023 13.374521 35.335690
v -37.235023 15.740263 35.335690
v -36.384979 13.374521 37.387871
v -36.384979 15.740263 37.387871
v -37.235023 13.374521 39.440052
v -37.235023 15.740263 39.440052
v -39.287205 13.374521 40.290096
v -39.287205 15.740263 40.290096
v -41.339386 13.374521 39.440052
v -41.339386 15.740263 39.440052
v -42.189430 13.374521 37.387871
v -42.189430 15.740263 37.387871
v -41.339386 13.374521 35.335690
v -41.339386 15.740263 35.335690
v -39.390266 15.506808 37.573673
v -39.390266 19.833294 37.573673
v -39.390266 15.506808 37.282146
v -39.390266 19.833294 37.282146
v -39.098740 15.506808 37.573673
v -39.098740 19.833294 37.573673
v -39.098740 15.506808 37.282146
v -39.098740 19.833294 37.282146
v -36.726738 14.398622 37.524715
v -36.726738 14.678724 37.524715
v -36.726738 14.398622 37.244614
v -36.726738 14.678724 37.244614
v -34.186596 14.398622 37.524715
v -34.186596 14.678724 37.524715
v -34.186596 14.398622 37.244614
v -34.186596 14.678724 37.244614
v -33.581375 14.868298 37.058495
v -33.581375 14.208674 37.058495
v -33.581375 14.868298 37.718121
v -33.581375 14.208674 37.718121
v -34.240997 14.868298 37.058495
v -34.240997 14.208674 37.058495
v -34.240997 14.868298 37.718121
v -34.240997 14.208674 37.718121
vt 0.375000 0.166667
vt 0.625000 0.166667
vt 0.625000 0.250000
vt 0.375000 0.250000
vt 0.375000 0.416667
vt 0.625000 0.416667
vt 0.625000 0.500000
vt 0.375000 0.500000
vt 0.375000 0.666667
vt 0.625000 0.666667
vt 0.625000 0.750000
vt 0.375000 0.750000
vt 0.375000 0.916667
vt 0.625000 0.916667
vt 0.625000 1.000000
vt 0.375000 1.000000
vt 0.291667 0.666667
vt 0.291667 0.750000
vt 0.791667 0.583333
vt 0.708333 0.583333
vt 0.708333 0.583333
vt 0.791667 0.583333
vt 0.375000 0.333333
vt 0.625000 0.333333
vt 0.375000 0.833333
vt 0.625000 0.833333
vt 0.208333 0.666667
vt 0.208333 0.750000
vt 0.125000 0.666667
vt 0.125000 0.750000
vt 0.708333 0.666667
vt 0.791667 0.666667
vt 0.791667 0.750000
vt 0.708333 0.750000
vt 0.708333 0.750000
vt 0.708333 0.666667
vt 0.625000 0.083333
vt 0.625000 0.083333
vt 0.625000 0.166667
vt 0.625000 0.583333
vt 0.625000 0.750000
vt 0.625000 0.666667
vt 0.625000 0.666667
vt 0.625000 0.750000
vt 0.125000 0.500000
vt 0.208333 0.500000
vt 0.208333 0.583333
vt 0.125000 0.583333
vt 0.291667 0.500000
vt 0.291667 0.583333
vt 0.625000 0.333333
vt 0.625000 0.416667
vt 0.625000 0.000000
vt 0.625000 0.000000
vt 0.375000 0.583333
vt 0.375000 0.000000
vt 0.375000 0.083333
vt 0.625000 0.583333
vt 0.625000 0.833333
vt 0.625000 1.000000
vt 0.625000 0.916667
vt 0.625000 0.916667
vt 0.625000 1.000000
vt 0.708333 0.500000
vt 0.708333 0.583333
vt 0.708333 0.500000
vt 0.791667 0.500000
vt 0.625000 0.250000
vt 0.625000 0.166667
vt 0.625000 0.250000
vt 0.875000 0.583333
vt 0.875000 0.666667
vt 0.791667 0.666667
vt 0.625000 0.833333
vt 0.625000 0.750000
vt 0.625000 0.833333
vt 0.708333 0.750000
vt 0.708333 0.666667
vt 0.791667 0.750000
vt 0.625000 0.500000
vt 0.625000 0.666667
vt 0.708333 0.666667
vt 0.708333 0.666667
vt 0.625000 0.666667
vt 0.708333 0.750000
vt 0.625000 0.833333
vt 0.625000 0.750000
vt 0.625000 0.750000
vt 0.625000 0.833333
vt 0.708333 0.750000
vt 0.625000 0.666667
vt 0.708333 0.666667
vt 0.708333 0.666667
vt 0.625000 0.666667
vt 0.708333 0.750000
vt 0.708333 0.750000
vt 0.625000 0.750000
vt 0.625000 0.833333
vt 0.625000 0.500000
vt 0.625000 0.583333
vt 0.625000 0.416667
vt 0.791667 0.500000
vt 0.875000 0.500000
vt 0.875000 0.583333
vt 0.791667 0.583333
vt 0.625000 0.333333
vt 0.791667 0.666667
vt 0.875000 0.666667
vt 0.875000 0.750000
vt 0.791667 0.750000
vt 0.625000 0.000000
vt 0.625000 0.083333
vt 0.375000 0.500000
vt 0.625000 0.625000
vt 0.375000 0.750000
vt 0.125000 0.500000
vt 0.125000 0.750000
vt 0.875000 0.625000
vt 0.875000 0.750000
vt 0.875000 0.500000
vt 0.375000 0.000000
vt 0.625000 0.125000
vt 0.375000 0.250000
vt 1.000000 0.500000
vt 1.000000 1.000000
vt 0.875000 1.000000
vt 0.875000 0.500000
vt 0.750000 1.000000
vt 0.750000 0.500000
vt 0.625000 1.000000
vt 0.625000 0.500000
vt 0.500000 1.000000
vt 0.500000 0.500000
vt 0.375000 1.000000
vt 0.375000 0.500000
vt 0.250000 1.000000
vt 0.250000 0.500000
vt 0.419706 0.419705
vt 0.250000 0.490000
vt 0.080294 0.419705
vt 0.010000 0.250000
vt 0.080294 0.080294
vt 0.250000 0.010000
vt 0.419706 0.080294
vt 0.490000 0.250000
vt 0.125000 1.000000
vt 0.125000 0.500000
vt 0.000000 1.000000
vt 0.000000 0.500000
vt 0.750000 0.490000
vt 0.919706 0.419705
vt 0.990000 0.250000
vt 0.919706 0.080294
vt 0.750000 0.010000
vt 0.580294 0.080294
vt 0.510000 0.250000
vt 0.580294 0.419705
vt 0.375000 0.000000
vt 0.625000 0.000000
vt 0.625000 0.250000
vt 0.375000 0.250000
vt 0.625000 0.500000
vt 0.375000 0.500000
vt 0.625000 0.750000
vt 0.375000 0.750000
vt 0.625000 1.000000
vt 0.375000 1.000000
vt 0.125000 0.500000
vt 0.125000 0.750000
vt 0.875000 0.500000
vt 0.875000 0.750000
vt 0.375000 0.000000
vt 0.625000 0.000000
vt 0.625000 0.250000
vt 0.375000 0.250000
vt 0.625000 0.500000
vt 0.375000 0.500000
vt 0.625000 0.750000
vt 0.375000 0.750000
vt 0.625000 1.000000
vt 0.375000 1.000000
vt 0.125000 0.500000
vt 0.125000 0.750000
vt 0.875000 0.500000
vt 0.875000 0.750000
vt 0.375000 0.000000
vt 0.375000 0.250000
vt 0.625000 0.250000
vt 0.625000 0.000000
vt 0.375000 0.500000
vt 0.625000 0.500000
vt 0.375000 0.750000
vt 0.625000 0.750000
vt 0.375000 1.000000
vt 0.625000 1.000000
vt 0.125000 0.500000
vt 0.125000 0.750000
vt 0.875000 0.750000
vt 0.875000 0.500000
vn -1.0000 0.0000 0.0000
vn 0.0000 0.0000 -1.0000
vn 1.0000 0.0000 0.0000
vn 0.0000 0.0000 1.0000
vn 0.0000 -1.0000 0.0000
vn 0.0000 1.0000 0.0000
vn 0.0000 0.7011 0.7131
vn 0.0000 0.7011 -0.7131
vn 0.3827 0.0000 -0.9239
vn 0.9239 0.0000 -0.3827
vn 0.9239 0.0000 0.3827
vn 0.3827 0.0000 0.9239
vn -0.3827 0.0000 0.9239
vn -0.9239 0.0000 0.3827
vn -0.9239 0.0000 -0.3827
vn -0.3827 0.0000 -0.9239
usemtl None
s off
f 17/1/1 20/2/1 4/3/1 3/4/1
f 16/5/2 13/6/2 8/7/2 7/8/2
f 21/9/3 24/10/3 6/11/3 5/12/3
f 12/13/4 9/14/4 2/15/4 1/16/4
f 30/17/5 21/9/5 5/12/5 11/18/5
f 27/19/4 31/20/4 48/21/4 46/22/4
f 15/23/2 14/24/2 13/6/2 16/5/2
f 11/25/4 10/26/4 9/14/4 12/13/4
f 5/12/4 6/11/4 10/26/4 11/25/4
f 26/27/5 30/17/5 11/18/5 12/28/5
f 18/29/5 26/27/5 12/28/5 1/30/5
f 32/31/6 28/32/6 9/33/6 10/34/6
f 32/31/4 10/34/4 34/35/4 36/36/4
f 3/4/2 4/3/2 14/24/2 15/23/2
f 20/2/4 19/37/4 43/38/4 44/39/4
f 23/40/6 31/20/6 32/31/6 24/10/6
f 33/41/4 35/42/4 51/43/4 49/44/4
f 31/20/6 27/19/6 28/32/6 32/31/6
f 3/45/5 15/46/5 25/47/5 17/48/5
f 17/48/5 25/47/5 26/27/5 18/29/5
f 15/46/5 16/49/5 29/50/5 25/47/5
f 25/47/5 29/50/5 30/17/5 26/27/5
f 13/6/4 14/24/4 42/51/4 41/52/4
f 19/37/4 2/53/4 37/54/4 43/38/4
f 16/49/5 7/8/5 22/55/5 29/50/5
f 29/50/5 22/55/5 21/9/5 30/17/5
f 7/8/3 8/7/3 23/40/3 22/55/3
f 22/55/3 23/40/3 24/10/3 21/9/3
f 1/56/1 2/53/1 19/37/1 18/57/1
f 18/57/1 19/37/1 20/2/1 17/1/1
f 31/20/4 23/40/4 45/58/4 48/21/4
f 10/26/4 6/11/4 33/41/4 34/59/4
f 24/10/4 32/31/4 36/36/4 35/42/4
f 6/11/4 24/10/4 35/42/4 33/41/4
f 37/60/4 40/61/4 78/62/4 77/63/4
f 41/64/1 48/21/1 72/65/1 70/66/1
f 41/64/6 42/67/6 46/22/6 48/21/6
f 38/68/1 44/39/1 75/69/1 73/70/1
f 46/22/6 44/71/6 43/72/6 47/73/6
f 50/74/4 49/44/4 53/75/4 54/76/4
f 36/36/4 34/35/4 50/77/4 52/78/4
f 4/3/4 20/2/4 44/39/4 38/68/4
f 28/32/4 27/19/4 46/22/4 47/73/4
f 14/24/4 4/3/4 38/68/4 42/51/4
f 34/59/4 33/41/4 49/44/4 50/74/4
f 9/33/4 28/32/4 47/73/4 40/79/4
f 2/15/4 9/14/4 40/61/4 37/60/4
f 35/42/4 36/36/4 52/78/4 51/43/4
f 23/40/4 8/7/4 39/80/4 45/58/4
f 8/7/4 13/6/4 41/52/4 39/80/4
f 55/81/4 56/82/4 60/83/4 59/84/4
f 49/44/4 51/43/4 55/81/4 53/75/4
f 51/43/4 52/78/4 56/82/4 55/81/4
f 52/78/4 50/77/4 54/85/4 56/82/4
f 58/86/4 57/87/4 61/88/4 62/89/4
f 56/82/4 54/85/4 58/90/4 60/83/4
f 54/76/4 53/75/4 57/87/4 58/86/4
f 53/75/4 55/81/4 59/84/4 57/87/4
f 63/91/2 64/92/2 68/93/2 67/94/2
f 57/87/4 59/84/4 63/91/4 61/88/4
f 59/84/4 60/83/4 64/92/4 63/91/4
f 60/83/4 58/90/4 62/95/4 64/92/4
f 67/94/6 68/93/6 66/96/6 65/97/6
f 64/92/1 62/95/1 66/96/1 68/93/1
f 62/89/4 61/88/4 65/97/4 66/98/4
f 61/88/3 63/91/3 67/94/3 65/97/3
f 69/99/6 70/66/6 72/65/6 71/100/6
f 39/80/2 41/52/2 70/101/2 69/99/2
f 48/21/4 45/58/4 71/100/4 72/65/4
f 45/58/3 39/80/3 69/99/3 71/100/3
f 74/102/6 73/103/6 75/104/6 76/105/6
f 46/22/3 42/67/3 74/102/3 76/105/3
f 42/51/2 38/68/2 73/70/2 74/106/2
f 44/71/4 46/22/4 76/105/4 75/104/4
f 80/107/6 79/108/6 77/109/6 78/110/6
f 43/38/1 37/54/1 77/111/1 79/112/1
f 40/79/3 47/73/3 80/107/3 78/110/3
f 47/73/2 43/72/2 79/108/2 80/107/2
f 84/113/3 86/114/3 83/115/3
f 82/116/5 84/113/5 83/115/5 81/117/5
f 86/114/7 85/118/7 81/119/7 83/115/7
f 84/113/8 82/120/8 85/118/8 86/114/8
f 81/121/1 85/122/1 82/123/1
f 87/124/9 88/125/9 90/126/9 89/127/9
f 89/127/10 90/126/10 92/128/10 91/129/10
f 91/129/11 92/128/11 94/130/11 93/131/11
f 93/131/12 94/130/12 96/132/12 95/133/12
f 95/133/13 96/132/13 98/134/13 97/135/13
f 97/135/14 98/134/14 100/136/14 99/137/14
f 90/138/6 88/139/6 102/140/6 100/141/6 98/142/6 96/143/6 94/144/6 92/145/6
f 99/137/15 100/136/15 102/146/15 101/147/15
f 101/147/16 102/146/16 88/148/16 87/149/16
f 87/150/5 89/151/5 91/152/5 93/153/5 95/154/5 97/155/5 99/156/5 101/157/5
f 103/158/1 104/159/1 106/160/1 105/161/1
f 105/161/2 106/160/2 110/162/2 109/163/2
f 109/163/3 110/162/3 108/164/3 107/165/3
f 107/165/4 108/164/4 104/166/4 103/167/4
f 105/168/5 109/163/5 107/165/5 103/169/5
f 110/162/6 106/170/6 104/171/6 108/164/6
f 111/172/1 112/173/1 114/174/1 113/175/1
f 113/175/2 114/174/2 118/176/2 117/177/2
f 117/177/3 118/176/3 116/178/3 115/179/3
f 115/179/4 116/178/4 112/180/4 111/181/4
f 113/182/5 117/177/5 115/179/5 111/183/5
f 118/176/6 114/184/6 112/185/6 116/178/6
f 119/186/3 121/187/3 122/188/3 120/189/3
f 121/187/4 125/190/4 126/191/4 122/188/4
f 125/190/1 123/192/1 124/193/1 126/191/1
f 123/192/2 119/194/2 120/195/2 124/193/2
f 121/196/6 119/197/6 123/192/6 125/190/6
f 126/191/5 124/193/5 120/198/5 122/199/5
